{
    "name": "Minimalism",
    "language": "en",
    "feeds": [
        {
          "name": "Julian Shapiro's Blog",
          "url": "https://www.julian.com/blog/rss.xml",
          "language": "en"
        },
        {
          "name": "Manuel Moreale's Blog",
          "url": "https://manuelmoreale.com/feed",
          "langauge": "en"
        },
        {
          "name": "Zen Habits",
          "url": "http://zenhabits.net/feed",
          "language": "en"
        }
  ]
}
