{
    "name": "Web architecture",
    "language": "en",
    "feeds": [
        {
            "name": "Martin Fowler",
            "url": "https://martinfowler.com/feed.atom"
        },
        {
            "name": "Advanced Web Machinery",
            "url": "https://advancedweb.hu/rss.xml"
        },
        {
            "name": "Nikita Sobolev",
            "url" : "https://sobolevn.me/feed.xml"
        }
    ]
}
